{
  "data": {
    "curPage": 1,
    "datas": [
      {
        "apkLink": "",
        "author": "开发的猫",
        "chapterId": 99,
        "chapterName": "具体案例",
        "collect": false,
        "courseId": 13,
        "desc": "",
        "envelopePic": "",
        "fresh": true,
        "id": 8430,
        "link": "https://www.jianshu.com/p/3cf87168ed49",
        "niceDate": "1分钟前",
        "origin": "",
        "prefix": "",
        "projectLink": "",
        "publishTime": 1557932323000,
        "superChapterId": 94,
        "superChapterName": "自定义控件",
        "tags": [],
        "title": "一步步教你如何定制一个Android「填空题」控件（仿学习强国填空题控件）",
        "type": 0,
        "userId": -1,
        "visible": 1,
        "zan": 0
      },
      {
        "apkLink": "",
        "author": "kevenZheng",
        "chapterId": 249,
        "chapterName": "干货资源",
        "collect": false,
        "courseId": 13,
        "desc": "",
        "envelopePic": "",
        "fresh": true,
        "id": 8429,
        "link": "https://www.jianshu.com/p/703794911751",
        "niceDate": "2分钟前",
        "origin": "",
        "prefix": "",
        "projectLink": "",
        "publishTime": 1557932290000,
        "superChapterId": 249,
        "superChapterName": "干货资源",
        "tags": [],
        "title": "GitHub 上优质项目整理",
        "type": 0,
        "userId": -1,
        "visible": 1,
        "zan": 0
      },
      {
        "apkLink": "",
        "author": "ZHTo0",
        "chapterId": 78,
        "chapterName": "性能优化",
        "collect": false,
        "courseId": 13,
        "desc": "",
        "envelopePic": "",
        "fresh": true,
        "id": 8428,
        "link": "https://www.jianshu.com/p/72b213fa6a26",
        "niceDate": "2分钟前",
        "origin": "",
        "prefix": "",
        "projectLink": "",
        "publishTime": 1557932266000,
        "superChapterId": 184,
        "superChapterName": "热门专题",
        "tags": [],
        "title": "性能优化工具（十三）-使用 Memory Profiler 查看 Java 堆和内存分配",
        "type": 0,
        "userId": -1,
        "visible": 1,
        "zan": 0
      },
      {
        "apkLink": "",
        "author": "若丨寒",
        "chapterId": 245,
        "chapterName": "集合相关",
        "collect": false,
        "courseId": 13,
        "desc": "",
        "envelopePic": "",
        "fresh": true,
        "id": 8427,
        "link": "https://www.jianshu.com/p/55baff0a591d",
        "niceDate": "5分钟前",
        "origin": "",
        "prefix": "",
        "projectLink": "",
        "publishTime": 1557932121000,
        "superChapterId": 245,
        "superChapterName": "Java深入",
        "tags": [],
        "title": "ThreadLocal源码解析，内存泄露以及传递性",
        "type": 0,
        "userId": -1,
        "visible": 1,
        "zan": 0
      },
      {
        "apkLink": "",
        "author": "koller",
        "chapterId": 78,
        "chapterName": "性能优化",
        "collect": false,
        "courseId": 13,
        "desc": "",
        "envelopePic": "",
        "fresh": true,
        "id": 8426,
        "link": "https://www.jianshu.com/p/cd6beac996a1",
        "niceDate": "5分钟前",
        "origin": "",
        "prefix": "",
        "projectLink": "",
        "publishTime": 1557932102000,
        "superChapterId": 184,
        "superChapterName": "热门专题",
        "tags": [],
        "title": "Android性能优化工具的使用",
        "type": 0,
        "userId": -1,
        "visible": 1,
        "zan": 0
      },
      {
        "apkLink": "",
        "author": "林帅并不帅",
        "chapterId": 450,
        "chapterName": "Lottie",
        "collect": false,
        "courseId": 13,
        "desc": "",
        "envelopePic": "",
        "fresh": false,
        "id": 8424,
        "link": "https://www.jianshu.com/p/0882ea3b59e3",
        "niceDate": "1天前",
        "origin": "",
        "prefix": "",
        "projectLink": "",
        "publishTime": 1557823895000,
        "superChapterId": 92,
        "superChapterName": "动画效果",
        "tags": [],
        "title": "lottie-android 框架使用及源码解析",
        "type": 0,
        "userId": -1,
        "visible": 1,
        "zan": 0
      },
      {
        "apkLink": "",
        "author": "andChen",
        "chapterId": 450,
        "chapterName": "Lottie",
        "collect": false,
        "courseId": 13,
        "desc": "",
        "envelopePic": "",
        "fresh": false,
        "id": 8425,
        "link": "https://www.jianshu.com/p/6a096668df2b",
        "niceDate": "1天前",
        "origin": "",
        "prefix": "",
        "projectLink": "",
        "publishTime": 1557823886000,
        "superChapterId": 92,
        "superChapterName": "动画效果",
        "tags": [],
        "title": "Lottie动画库 Android 端源码浅析",
        "type": 0,
        "userId": -1,
        "visible": 1,
        "zan": 0
      },
      {
        "apkLink": "",
        "author": "蓝灰_q ",
        "chapterId": 70,
        "chapterName": "retrofit",
        "collect": false,
        "courseId": 13,
        "desc": "",
        "envelopePic": "",
        "fresh": false,
        "id": 8423,
        "link": "https://www.jianshu.com/p/f57b7cdb1c99",
        "niceDate": "1天前",
        "origin": "",
        "prefix": "",
        "projectLink": "",
        "publishTime": 1557767218000,
        "superChapterId": 98,
        "superChapterName": "网络访问",
        "tags": [],
        "title": "从架构角度看Retrofit的作用、原理和启示",
        "type": 0,
        "userId": -1,
        "visible": 1,
        "zan": 0
      },
      {
        "apkLink": "",
        "author": "若丨寒",
        "chapterId": 304,
        "chapterName": "基础源码",
        "collect": false,
        "courseId": 13,
        "desc": "",
        "envelopePic": "",
        "fresh": false,
        "id": 8422,
        "link": "https://www.jianshu.com/p/1d66666532bc",
        "niceDate": "1天前",
        "origin": "",
        "prefix": "",
        "projectLink": "",
        "publishTime": 1557767196000,
        "superChapterId": 245,
        "superChapterName": "Java深入",
        "tags": [],
        "title": "Java开发必须要掌握的21个核心技术",
        "type": 0,
        "userId": -1,
        "visible": 1,
        "zan": 0
      },
      {
        "apkLink": "",
        "author": "ZHTo0",
        "chapterId": 78,
        "chapterName": "性能优化",
        "collect": false,
        "courseId": 13,
        "desc": "",
        "envelopePic": "",
        "fresh": false,
        "id": 8421,
        "link": "https://www.jianshu.com/p/9edfe9d5eb34",
        "niceDate": "1天前",
        "origin": "",
        "prefix": "",
        "projectLink": "",
        "publishTime": 1557767163000,
        "superChapterId": 184,
        "superChapterName": "热门专题",
        "tags": [],
        "title": "性能优化工具（十三）-使用 Memory Profiler 查看 Java 堆和内存分配",
        "type": 0,
        "userId": -1,
        "visible": 1,
        "zan": 0
      },
      {
        "apkLink": "",
        "author": "玉刚说",
        "chapterId": 410,
        "chapterName": "玉刚说",
        "collect": false,
        "courseId": 13,
        "desc": "",
        "envelopePic": "",
        "fresh": false,
        "id": 8403,
        "link": "https://mp.weixin.qq.com/s/VBYLs5Mv6el58oSkGkWSkA",
        "niceDate": "2天前",
        "origin": "",
        "prefix": "",
        "projectLink": "",
        "publishTime": 1557676800000,
        "superChapterId": 408,
        "superChapterName": "公众号",
        "tags": [
          {
            "name": "公众号",
            "url": "/wxarticle/list/410/1"
          }
        ],
        "title": "Kotlin 新版来了，支持跨平台！",
        "type": 0,
        "userId": -1,
        "visible": 1,
        "zan": 0
      },
      {
        "apkLink": "",
        "author": "程序亦非猿",
        "chapterId": 428,
        "chapterName": "程序亦非猿",
        "collect": false,
        "courseId": 13,
        "desc": "",
        "envelopePic": "",
        "fresh": false,
        "id": 8406,
        "link": "https://mp.weixin.qq.com/s/8vuOj8JnGk-hwl5AU2itkQ",
        "niceDate": "2天前",
        "origin": "",
        "prefix": "",
        "projectLink": "",
        "publishTime": 1557676800000,
        "superChapterId": 408,
        "superChapterName": "公众号",
        "tags": [
          {
            "name": "公众号",
            "url": "/wxarticle/list/428/1"
          }
        ],
        "title": "【AAC 系列二】深入理解架构组件的基石：Lifecycle",
        "type": 0,
        "userId": -1,
        "visible": 1,
        "zan": 0
      },
      {
        "apkLink": "",
        "author": "鸿洋",
        "chapterId": 408,
        "chapterName": "鸿洋",
        "collect": false,
        "courseId": 13,
        "desc": "",
        "envelopePic": "",
        "fresh": false,
        "id": 8414,
        "link": "https://mp.weixin.qq.com/s/WMsLuc7sktL952I-29EPyg",
        "niceDate": "2天前",
        "origin": "",
        "prefix": "",
        "projectLink": "",
        "publishTime": 1557676800000,
        "superChapterId": 408,
        "superChapterName": "公众号",
        "tags": [
          {
            "name": "公众号",
            "url": "/wxarticle/list/408/1"
          }
        ],
        "title": "学最好的技术 进更好的公司 | 各大互联网公司技术分享",
        "type": 0,
        "userId": -1,
        "visible": 1,
        "zan": 0
      },
      {
        "apkLink": "",
        "author": "digtal",
        "chapterId": 294,
        "chapterName": "完整项目",
        "collect": false,
        "courseId": 13,
        "desc": "一款用来学习安卓的微信小程序",
        "envelopePic": "https://www.wanandroid.com/blogimgs/58dbab50-0821-40fc-9db4-0f4c10803650.png",
        "fresh": false,
        "id": 8400,
        "link": "http://www.wanandroid.com/blog/show/2572",
        "niceDate": "2019-05-12",
        "origin": "",
        "prefix": "",
        "projectLink": "https://github.com/digtal/wanandroid-program",
        "publishTime": 1557670418000,
        "superChapterId": 294,
        "superChapterName": "开源项目主Tab",
        "tags": [
          {
            "name": "项目",
            "url": "/project/list/1?cid=294"
          }
        ],
        "title": "玩安卓微信小程序",
        "type": 0,
        "userId": -1,
        "visible": 1,
        "zan": 0
      },
      {
        "apkLink": "",
        "author": "liangperfect",
        "chapterId": 294,
        "chapterName": "完整项目",
        "collect": false,
        "courseId": 13,
        "desc": "wanAndroid项目基于 Material Design + MVP + Rxjava2 + Retrofit + Room + Glide\r\n该项目主要是用作于学习,采用现在热门的Android框架\r\n数据接口是用的鸿神的wanAndroid APi https://www.wanandroid.com/blog/show/2\r\n",
        "envelopePic": "https://www.wanandroid.com/blogimgs/01e987fe-1a12-42bc-b170-06b709745545.png",
        "fresh": false,
        "id": 8397,
        "link": "http://www.wanandroid.com/blog/show/2569",
        "niceDate": "2019-05-12",
        "origin": "",
        "prefix": "",
        "projectLink": "https://github.com/liangperfect/aLiangWanAndroid",
        "publishTime": 1557670141000,
        "superChapterId": 294,
        "superChapterName": "开源项目主Tab",
        "tags": [
          {
            "name": "项目",
            "url": "/project/list/1?cid=294"
          }
        ],
        "title": "wanAndroid学习项目",
        "type": 0,
        "userId": -1,
        "visible": 1,
        "zan": 0
      },
      {
        "apkLink": "",
        "author": "cwjfeifei",
        "chapterId": 294,
        "chapterName": "完整项目",
        "collect": false,
        "courseId": 13,
        "desc": "Kotlin  高德地图 仿微信 发送位置",
        "envelopePic": "https://www.wanandroid.com/blogimgs/ba2f751d-c323-476c-8114-777569836805.png",
        "fresh": false,
        "id": 8395,
        "link": "http://www.wanandroid.com/blog/show/2567",
        "niceDate": "2019-05-12",
        "origin": "",
        "prefix": "",
        "projectLink": "https://github.com/cwjfeifei/GDLocation",
        "publishTime": 1557670059000,
        "superChapterId": 294,
        "superChapterName": "开源项目主Tab",
        "tags": [
          {
            "name": "项目",
            "url": "/project/list/1?cid=294"
          }
        ],
        "title": "Kotlin  高德地图 仿微信 发送位置",
        "type": 0,
        "userId": -1,
        "visible": 1,
        "zan": 0
      },
      {
        "apkLink": "",
        "author": "KunMinX",
        "chapterId": 314,
        "chapterName": "RV列表动效",
        "collect": false,
        "courseId": 13,
        "desc": "LinkageRecyclerView 是一款基于 MVP 架构开发的二级联动列表控件。它是因 &ldquo;RxJava 魔法师&rdquo; 这个项目的需求而存在。\r\n\r\n在最初寻遍了 GitHub 也没有找到合适的开源库（高度解耦、可远程依赖）之后，我决心研究参考现有开源项目关于二级联动的逻辑，并自己动手编写一个 高度解耦、轻松配置、可通过 maven 仓库远程依赖 的真正的第三方库。",
        "envelopePic": "https://www.wanandroid.com/blogimgs/d558e93b-ac6c-4ae4-ae12-3b35326cef18.png",
        "fresh": false,
        "id": 8392,
        "link": "http://www.wanandroid.com/blog/show/2564",
        "niceDate": "2019-05-12",
        "origin": "",
        "prefix": "",
        "projectLink": "https://github.com/KunMinX/Linkage-RecyclerView",
        "publishTime": 1557669888000,
        "superChapterId": 294,
        "superChapterName": "开源项目主Tab",
        "tags": [
          {
            "name": "项目",
            "url": "/project/list/1?cid=314"
          }
        ],
        "title": "Linkage-RecyclerView：即使不用饿了么，也请不要错过这个库！",
        "type": 0,
        "userId": -1,
        "visible": 1,
        "zan": 0
      },
      {
        "apkLink": "",
        "author": "jzmanu",
        "chapterId": 338,
        "chapterName": "日历&amp;时钟",
        "collect": false,
        "courseId": 13,
        "desc": "自定义View实现一个日期时间选择器，支持日期选择和日期时间选择，常见的可以设置显示标题、显示在底部还是居中显示，支持12小时或24小时制等\r\n\r\ngradle依赖如下：\r\ncompile &#39;com.manu:MDatePicker:1.0.1&#39;",
        "envelopePic": "https://www.wanandroid.com/blogimgs/b9f3fae8-fcbd-4648-b40c-82ea0e46be1e.png",
        "fresh": false,
        "id": 8393,
        "link": "http://www.wanandroid.com/blog/show/2565",
        "niceDate": "2019-05-12",
        "origin": "",
        "prefix": "",
        "projectLink": "https://github.com/jzmanu/MDatePickerSample",
        "publishTime": 1557669865000,
        "superChapterId": 294,
        "superChapterName": "开源项目主Tab",
        "tags": [
          {
            "name": "项目",
            "url": "/project/list/1?cid=338"
          }
        ],
        "title": "自定义View实现一个好用的日期时间选择器",
        "type": 0,
        "userId": -1,
        "visible": 1,
        "zan": 0
      },
      {
        "apkLink": "",
        "author": "Hitomis",
        "chapterId": 323,
        "chapterName": "动画",
        "collect": false,
        "courseId": 13,
        "desc": "一个帮助您完成从缩略图到原图无缝过渡转变的神奇组件\r\n",
        "envelopePic": "https://www.wanandroid.com/blogimgs/8858a039-18ca-4607-8663-69e0b7bb39de.png",
        "fresh": false,
        "id": 8390,
        "link": "http://www.wanandroid.com/blog/show/2562",
        "niceDate": "2019-05-12",
        "origin": "",
        "prefix": "",
        "projectLink": "https://github.com/Hitomis/transferee",
        "publishTime": 1557652874000,
        "superChapterId": 294,
        "superChapterName": "开源项目主Tab",
        "tags": [
          {
            "name": "项目",
            "url": "/project/list/1?cid=323"
          }
        ],
        "title": "Transferee 帮助你完成从缩略图到原图的无缝过渡转变",
        "type": 0,
        "userId": -1,
        "visible": 1,
        "zan": 0
      },
      {
        "apkLink": "",
        "author": "小编",
        "chapterId": 281,
        "chapterName": "公司博客",
        "collect": false,
        "courseId": 13,
        "desc": "",
        "envelopePic": "",
        "fresh": false,
        "id": 8388,
        "link": "https://zhuanlan.zhihu.com/hackers",
        "niceDate": "2019-05-12",
        "origin": "",
        "prefix": "",
        "projectLink": "",
        "publishTime": 1557642620000,
        "superChapterId": 272,
        "superChapterName": "导航主Tab",
        "tags": [
          {
            "name": "导航",
            "url": "/navi#281"
          }
        ],
        "title": "知乎技术专栏",
        "type": 0,
        "userId": -1,
        "visible": 1,
        "zan": 0
      }
    ],
    "offset": 0,
    "over": false,
    "pageCount": 325,
    "size": 20,
    "total": 6485
  },
  "errorCode": 0,
  "errorMsg": ""
}